…
**`magrittr`** comes with the pipe **`%>%`** and it is a powerful tool for chaining multiple operations. The point of the pipe is to help you write code in a way that easier to read and understand.

**`lubridate`** simplifies parsing dates and times by handling a wide variety of formats and seperators. It is not part of core tidyverse so we have to load it manually.

Conditional subset using **`dplyr`**

``` r
dplyr::filter(envData, STAID == "229" & RR > 100)
```

    ## # A tibble: 956 x 5
    ##    STAID SOUID     DATE    RR  Q_RR
    ##    <int> <int>    <int> <int> <int>
    ##  1   229   709 19550102   194     0
    ##  2   229   709 19550104   168     0
    ##  3   229   709 19550129   150     0
    ##  4   229   709 19550215   150     0
    ##  5   229   709 19550216   138     0
    ##  6   229   709 19550222   124     0
    ##  7   229   709 19550225   120     0
    ##  8   229   709 19550314   153     0
    ##  9   229   709 19550319   120     0
    ## 10   229   709 19550523   113     0
    ## # ... with 946 more rows

Conditional subset using **`dplyr`** & **`magrittr`**

``` r
envData %>% dplyr::filter(STAID %in% c("236", "230") & RR > 100)
```

    ## # A tibble: 2,877 x 5
    ##    STAID SOUID     DATE    RR  Q_RR
    ##    <int> <int>    <int> <int> <int>
    ##  1   230   710 19200218   245     0
    ##  2   230   710 19200219   262     0
    ##  3   230   710 19200220   144     0
    ##  4   230   710 19200513   384     0
    ##  5   230   710 19200528   229     0
    ##  6   230   710 19200627   139     0
    ##  7   230   710 19201005   133     0
    ##  8   230   710 19201006   153     0
    ##  9   230   710 19201013   114     0
    ## 10   230   710 19201024   159     0
    ## # ... with 2,867 more rows
…
    ## [1] 260169      8

### Grouped summaries

-   Find *Rainfall quantiles* for each Station and for each month of the year by excluding *NA* values and print the result in desceding order

``` r
RRquantiles <- envData %>% group_by(Year, Month, STAID) %>% summarise(quantiles = quantile(RR, na.rm = T, probs = 0.9)) %>% arrange(-quantiles)
RRquantiles
```

    ## # A tibble: 110,121 x 4
    ## # Groups:   Year, Month [1,445]
    ##     Year Month STAID quantiles
    ##    <dbl> <dbl> <int>     <dbl>
    ##  1  1979     1  1388    1140.0
    ##  2  2015     3 11064     851.0
    ##  3  1965    10  3920     804.0
    ##  4  1965    10  3930     804.0
    ##  5  1965    10 11040     804.0
    ##  6  1978    12  1394     726.0
    ##  7  1962     3  1395     716.0
    ##  8  1989    11   231     672.3
    ##  9  1947     3  3955     662.0
    ## 10  1978    12  1395     650.0
    ## # ... with 110,111 more rows
Explore missing values
======================

### Group by *NA* values

In what extend *NA* values affect our analysis? We calculate the missing days per Year per month per Station with decreasing order and return a subset of columns using **`select`**

``` r
Missingdaysofmonths <- envData %>% group_by(Year, Month, STAID) %>% 
  count(is.na(RR)) %>% arrange(-n) %>% 
  select(Year, Month, STAID, n)
Missingdaysofmonths
```

    ## # A tibble: 111,521 x 4
    ## # Groups:   Year, Month, STAID [110,121]
    ##     Year Month STAID     n
    ##    <dbl> <dbl> <int> <int>
    ##  1  1896    12  3920    31
    ##  2  1896    12  3930    31
    ##  3  1896    12 11040    31
    ##  4  1897     1  3920    31
    ##  5  1897     1  3930    31
    ##  6  1897     1 11040    31
    ##  7  1897     3  3920    31
    ##  8  1897     3  3930    31
    ##  9  1897     3 11040    31
    ## 10  1897     5  3920    31
    ## # ... with 111,511 more rows
…
`filter` by given threshold of NA values (20 days per month) that are included in each observation of the previous dataset.

-   `tally` calculates the total number of NA values for every Station every Year

``` r
MissingYeardays <- Missingdaysofmonths %>% filter(n > 20) %>% group_by(STAID, Year) %>% tally() #%>% arrange(-n)
```

    ## Using `n` as weighting variable

``` r
MissingYeardays
```

    ## # A tibble: 9,371 x 3
    ## # Groups:   STAID [?]
    ##    STAID  Year    nn
    ##    <int> <dbl> <int>
    ##  1   229  1955   365
    ##  2   229  1956   366
    ##  3   229  1957   365
    ##  4   229  1958   365
    ##  5   229  1959   365
    ##  6   229  1960   366
    ##  7   229  1961   365
    ##  8   229  1962   365
    ##  9   229  1963   365
    ## 10   229  1964   366
    ## # ... with 9,361 more rows

-   `count` calculates the number of months for every Station every Year that fulfil the condition `"n > 20"`

``` r
MissingYeardays1 <- Missingdaysofmonths %>% filter(n > 20) %>% group_by(STAID, Year) %>% count() #%>% arrange(-n)
MissingYeardays1
```

    ## # A tibble: 9,371 x 3
    ## # Groups:   STAID, Year [9,371]
    ##    STAID  Year    nn
    ##    <int> <dbl> <int>
    ##  1   229  1955    12
    ##  2   229  1956    12
    ##  3   229  1957    12
    ##  4   229  1958    12
    ##  5   229  1959    12
    ##  6   229  1960    12
    ##  7   229  1961    12
    ##  8   229  1962    12
    ##  9   229  1963    12
    ## 10   229  1964    12
    ## # ... with 9,361 more rows

### Quick geospatial view

-   Where are located the stations that per year contain NAs &gt; 70% ? <br> We are going to use the `MissingYeardays` dataset and `filter` by the above condition. We use the `distinct` verb to get the stations which have at least one year that satisfies our condition. `inner_join` with the `stationsData` will give us the *lattitude* and *longitude* variables. **`leaflet`** package will plot for us the geolocation of the result.

``` r
stations <- MissingYeardays %>% filter (nn > 0.7 * 365) %>% distinct(STAID)
geostations <- inner_join(stations, select(stationsData, STAID, STANAME, CN, latUpd, longUpd), by = "STAID")
options(tibble.width = Inf)
geostations
```

    ## # A tibble: 200 x 5
    ## # Groups:   STAID [?]
    ##    STAID                                  STANAME    CN   latUpd    longUpd
    ##    <int>                                    <chr> <chr>    <dbl>      <dbl>
    ##  1   229 BADAJOZ/TALAVERA LA REAL                    ES 38.88306 -5.1708333
    ##  2   230 MADRID - RETIRO                             ES 40.41167 -2.3219444
    ##  3   231 MALAGA AEROPUERTO                           ES 36.66667 -3.5119444
    ##  4   232 NAVACERRADA                                 ES 40.78056 -3.9897222
    ##  5   233 SALAMANCA AEROPUERTO                        ES 40.95917 -4.5019444
    ##  6   234 SAN SEBASTIAN - IGUELDO                     ES 43.30750 -1.9608333
    ##  7   235 TORREVIEJA                                  ES 37.97694  0.7105556
    ##  8   236 TORTOSA - OBSERVATORIO DEL EBRO             ES 40.82056  0.4913889
    ##  9   237 VALENCIA                                    ES 39.48056  0.3663889
    ## 10   238 ZARAGOZA AEROPUERTO                         ES 41.66167 -0.9919444
    ## # ... with 190 more rows
…
# Ungoup the dataset to take advantage of summarise verb
Missingdaysofmonths1 <- ungroup(Missingdaysofmonths)
```

Now, we can give the monthly ratio of `NAs` and/or the year ratio and understand the status of the `NAs`

``` r
Missingdaysofmonths %>% 
  filter(ratio < 0.5) %>% 
  group_by(STAID, Year) %>% 
  summarise(yearRatio = sum(ratio)/12) %>% 
  filter(yearRatio < 0.4)
```

    ## # A tibble: 453 x 3
    ## # Groups:   STAID [97]
    ##    STAID  Year   yearRatio
    ##    <int> <dbl>       <dbl>
    ##  1   235  2002 0.002688172
    ##  2   235  2003 0.002688172
    ##  3   236  1938 0.037903226
    ##  4   237  2006 0.002688172
    ##  5   309  2002 0.010752688
    ##  6   335  1913 0.013440860
    ##  7   337  1986 0.035444046
    ##  8   412  1938 0.038888889
    ##  9   412  1941 0.030555556
    ## 10   415  1989 0.029569892
    ## # ... with 443 more rows
